…
## “vlunder200”

The variable, vlunder200, was coded as ifelse(vlunder200 \< 200, 1, 2),
however, the variable was still a character when it ran. So, hundreds of
observations had been misclassified. It should be fine now.

``` r
bio_dat %>% 
  mutate(resultvlc = as.numeric(resultvlc, na.rm = TRUE)) %>% 
  filter(resultvlc < 201) # 2,165
```

    ## # A tibble: 2,165 x 14
    ##    personid hiv1statusfinal~ aware   art awareselfreport~ arvstatus
    ##    <chr>    <chr>            <dbl> <dbl>            <dbl>     <dbl>
    ##  1 SW00000~ 1                    1     1                1         1
    ##  2 SW00000~ 1                    1     1                1         1
    ##  3 SW00000~ 1                    1     1                1         1
    ##  4 SW00000~ 1                    1     1                1         1
    ##  5 SW00000~ 1                    1     1                1         1
    ##  6 SW00000~ 1                    1     1                1         1
    ##  7 SW00000~ 1                    1     1                1         1
    ##  8 SW00000~ 1                    1     1                1         1
    ##  9 SW00000~ 1                    1     1                1         1
    ## 10 SW00000~ 1                   99    99                1        99
    ## # ... with 2,155 more rows, and 8 more variables: artselfreported <dbl>,
    ## #   resultvlc <dbl>, vls <dbl>, tri90 <dbl>, tri90aware <dbl>, tri90art <dbl>,
    ## #   tri90vls <dbl>, vlunder200 <dbl>

``` r
# This doesn't work because the resultvlc hasn't been recoded
biomarker %>% 
  filter(hiv1statusfinalsurvey == 1) %>% 
  mutate(resultvlc = as.numeric(resultvlc, na.rm = TRUE)) %>% 
  filter(resultvlc < 201) # 392
```

    ## # A tibble: 392 x 176
    ##    country householdid personid bt_status gender   age cd4count hiv1statusfinal~
    ##    <chr>   <chr>       <chr>        <dbl>  <dbl> <dbl> <chr>    <chr>           
    ##  1 Eswati~ SW00000000~ SW00000~         1      1    36 258      1               
    ##  2 Eswati~ SW00000000~ SW00000~         9      2    50 467      1               
    ##  3 Eswati~ SW00000000~ SW00000~         1      1    26 390      1               
    ##  4 Eswati~ SW00000000~ SW00000~         1      1    37 898      1               
    ##  5 Eswati~ SW00000000~ SW00000~         1      2    59 624      1               
    ##  6 Eswati~ SW00000000~ SW00000~         1      2    54 601      1               
    ##  7 Eswati~ SW00000000~ SW00000~         1      2    27 352      1               
    ##  8 Eswati~ SW00000000~ SW00000~         1      2    40 507      1               
    ##  9 Eswati~ SW00000000~ SW00000~         1      2    33 758      1               
    ## 10 Eswati~ SW00000000~ SW00000~         1      2    65 770      1               
    ## # ... with 382 more rows, and 168 more variables: recentlagvl <dbl>,
    ## #   lagodnfinal <chr>, arvefv <chr>, arvlpv <chr>, arvnvp <chr>,
    ## #   resultvlc <dbl>, surveystdt <date>, cd4cat <dbl>, hivselfreport <dbl>,
    ## #   hivstatusfinal <dbl>, recentlagvlarv <dbl>, aware <dbl>, art <dbl>,
    ## #   awareselfreported <dbl>, artselfreported <dbl>, awareartselfreported <dbl>,
    ## #   artinitiated12months <dbl>, artduration <dbl>, arvstatus <dbl>, vls <dbl>,
    ## #   tri90 <dbl>, tri90aware <dbl>, tri90art <dbl>, tri90vls <dbl>, btwt0 <chr>,
    ## #   varstrat <chr>, varunit <chr>, btwt001 <chr>, btwt002 <chr>, btwt003 <chr>,
    ## #   btwt004 <chr>, btwt005 <chr>, btwt006 <chr>, btwt007 <chr>, btwt008 <chr>,
…
``` r
# This shows 122 more people were viral load suppressed at 1000 copies per milliliter compared to 200 copies per milliliter. This is within the realm of what would be expected.
bio_dat %>% 
  filter(vls == 1) # 2,287
```

    ## # A tibble: 2,287 x 14
    ##    personid hiv1statusfinal~ aware   art awareselfreport~ arvstatus
    ##    <chr>    <chr>            <dbl> <dbl>            <dbl>     <dbl>
    ##  1 SW00000~ 1                    1     1                1         1
    ##  2 SW00000~ 1                    1     1                1         1
    ##  3 SW00000~ 1                    1     1                1         1
    ##  4 SW00000~ 1                    1     1                1         1
    ##  5 SW00000~ 1                    1     1                1         1
    ##  6 SW00000~ 1                    1     1                1         1
    ##  7 SW00000~ 1                    1     1                1         1
    ##  8 SW00000~ 1                    1     1                1         1
    ##  9 SW00000~ 1                    2     2                2         2
    ## 10 SW00000~ 1                    1     1                1         1
    ## # ... with 2,277 more rows, and 8 more variables: artselfreported <dbl>,
    ## #   resultvlc <dbl>, vls <dbl>, tri90 <dbl>, tri90aware <dbl>, tri90art <dbl>,
    ## #   tri90vls <dbl>, vlunder200 <dbl>

``` r
bio_cong_dat %>% 
  filter(vls == 1) # 2,242
```

    ## # A tibble: 2,242 x 14
    ##    personid hiv1statusfinal~ aware   art awareselfreport~ arvstatus
    ##    <chr>    <chr>            <dbl> <dbl>            <dbl>     <dbl>
    ##  1 SW00000~ 1                    1     1                1         1
    ##  2 SW00000~ 1                    1     1                1         1
    ##  3 SW00000~ 1                    1     1                1         1
    ##  4 SW00000~ 1                    1     1                1         1
    ##  5 SW00000~ 1                    1     1                1         1
    ##  6 SW00000~ 1                    1     1                1         1
    ##  7 SW00000~ 1                    1     1                1         1
    ##  8 SW00000~ 1                    1     1                1         1
    ##  9 SW00000~ 1                    2     2                2         2
    ## 10 SW00000~ 1                    1     1                1         1
    ## # ... with 2,232 more rows, and 8 more variables: artselfreported <dbl>,
    ## #   resultvlc <dbl>, vls <dbl>, tri90 <dbl>, tri90aware <dbl>, tri90art <dbl>,
    ## #   tri90vls <dbl>, vlunder200 <dbl>

``` r
bio_cong_dat %>% 
  filter(resultvlc < 200) # 2,011
```

    ## # A tibble: 2,121 x 14
    ##    personid hiv1statusfinal~ aware   art awareselfreport~ arvstatus
    ##    <chr>    <chr>            <dbl> <dbl>            <dbl>     <dbl>
    ##  1 SW00000~ 1                    1     1                1         1
    ##  2 SW00000~ 1                    1     1                1         1
    ##  3 SW00000~ 1                    1     1                1         1
    ##  4 SW00000~ 1                    1     1                1         1
    ##  5 SW00000~ 1                    1     1                1         1
    ##  6 SW00000~ 1                    1     1                1         1
    ##  7 SW00000~ 1                    1     1                1         1
    ##  8 SW00000~ 1                    1     1                1         1
    ##  9 SW00000~ 1                    1     1                1         1
    ## 10 SW00000~ 1                    1     1                1         1
    ## # ... with 2,111 more rows, and 8 more variables: artselfreported <dbl>,
    ## #   resultvlc <dbl>, vls <dbl>, tri90 <dbl>, tri90aware <dbl>, tri90art <dbl>,
    ## #   tri90vls <dbl>, vlunder200 <dbl>

``` r
#There are still 129 more folks who are virally suppressed at the 1000 copies per milliliter level, as expected
bio_cong_dat %>% 
  filter(vlunder200 == 1) # 2,011
```

    ## # A tibble: 2,121 x 14
    ##    personid hiv1statusfinal~ aware   art awareselfreport~ arvstatus
    ##    <chr>    <chr>            <dbl> <dbl>            <dbl>     <dbl>
    ##  1 SW00000~ 1                    1     1                1         1
    ##  2 SW00000~ 1                    1     1                1         1
    ##  3 SW00000~ 1                    1     1                1         1
    ##  4 SW00000~ 1                    1     1                1         1
    ##  5 SW00000~ 1                    1     1                1         1
    ##  6 SW00000~ 1                    1     1                1         1
    ##  7 SW00000~ 1                    1     1                1         1
    ##  8 SW00000~ 1                    1     1                1         1
    ##  9 SW00000~ 1                    1     1                1         1
    ## 10 SW00000~ 1                    1     1                1         1
    ## # ... with 2,111 more rows, and 8 more variables: artselfreported <dbl>,
    ## #   resultvlc <dbl>, vls <dbl>, tri90 <dbl>, tri90aware <dbl>, tri90art <dbl>,
    ## #   tri90vls <dbl>, vlunder200 <dbl>
…
